<svg width="32" height="32" viewBox="0 0 32 32" fill="none" xmlns="http://www.w3.org/2000/svg">
<path d="M12.0003 25H20.0003" stroke="#FBFAFA" stroke-width="2" stroke-linecap="round" stroke-linejoin="round"/>
<path d="M13.0003 29H19.0003" stroke="#FBFAFA" stroke-width="2" stroke-linecap="round" stroke-linejoin="round"/>
<path d="M9.99944 21.0001C8.32059 19.7407 7.08054 17.985 6.45493 15.9816C5.82932 13.9783 5.84986 11.8289 6.51364 9.83795C7.17742 7.84695 8.4508 6.11526 10.1534 4.88816C11.856 3.66105 13.9016 3.00074 16.0003 3.00073C18.099 3.00073 20.1446 3.66104 21.8472 4.88814C23.5498 6.11524 24.8232 7.84693 25.487 9.83792C26.1508 11.8289 26.1713 13.9783 25.5457 15.9816C24.9201 17.9849 23.68 19.7406 22.0012 21.0001" stroke="#FBFAFA" stroke-width="2" stroke-linecap="round" stroke-linejoin="round"/>
</svg>
