<svg width="26" height="25" viewBox="0 0 26 25" fill="none" xmlns="http://www.w3.org/2000/svg">
<path d="M6.67871 12.5H19.1787" stroke="white" stroke-width="2" stroke-linecap="round" stroke-linejoin="round"/>
<path d="M2.77246 7.8125H23.085" stroke="white" stroke-width="2" stroke-linecap="round" stroke-linejoin="round"/>
<path d="M10.585 17.1875H15.2725" stroke="white" stroke-width="2" stroke-linecap="round" stroke-linejoin="round"/>
</svg>
