<svg width="31" height="31" viewBox="0 0 31 31" fill="none" xmlns="http://www.w3.org/2000/svg">
<path d="M10.3333 15.5H0V25.8333H10.3333V15.5Z" fill="#FBFAFA"/>
<path d="M10.3333 15.4999L5.16667 10.3333L0 15.4999H10.3333Z" fill="#FBFAFA"/>
<path d="M31 5.16675H20.6666V15.5001H31V5.16675Z" fill="#FBFAFA"/>
<path d="M20.6666 15.5L25.8333 20.6667L31 15.5H20.6666Z" fill="#FBFAFA"/>
<path d="M25.8333 20.6667H15.5V31.0001H25.8333V20.6667Z" fill="#FBFAFA"/>
<path d="M15.5 20.6667L10.3334 25.8334L15.5 31.0001V20.6667Z" fill="#FBFAFA"/>
<path d="M15.5 0H5.16663V10.3333H15.5V0Z" fill="#FBFAFA"/>
<path d="M15.5 10.3333L20.6667 5.16667L15.5 0V10.3333Z" fill="#FBFAFA"/>
</svg>
