<svg width="42" height="42" viewBox="0 0 42 42" fill="none" xmlns="http://www.w3.org/2000/svg">
<circle cx="21" cy="21" r="20.5" stroke="#343434"/>
<path d="M14 17.6842L21.3684 25.0526L28.7368 17.6842" stroke="#FBFAFA"/>
</svg>
