<svg width="32" height="32" viewBox="0 0 32 32" fill="none" xmlns="http://www.w3.org/2000/svg">
<path d="M18 28H14" stroke="#FBFAFA" stroke-width="2" stroke-linecap="round" stroke-linejoin="round"/>
<path d="M15.3713 2.47035C12.9972 4.37211 5.05676 11.9715 12 24H20C26.7988 11.98 18.9745 4.38287 16.6253 2.4744C16.4483 2.33045 16.2272 2.25153 15.999 2.2508C15.7708 2.25006 15.5493 2.32755 15.3713 2.47035V2.47035Z" stroke="#FBFAFA" stroke-width="2" stroke-linecap="round" stroke-linejoin="round"/>
<path d="M9.23331 13.92L5.31454 18.6225C5.21666 18.74 5.14701 18.8783 5.11096 19.0269C5.07491 19.1755 5.07341 19.3304 5.10658 19.4796L6.65194 26.4338C6.68878 26.5995 6.76723 26.7532 6.87988 26.8803C6.99254 27.0073 7.13571 27.1036 7.29587 27.16C7.45604 27.2164 7.62794 27.2312 7.79536 27.2028C7.96279 27.1744 8.12022 27.1038 8.25282 26.9977L12 24" stroke="#FBFAFA" stroke-width="2" stroke-linecap="round" stroke-linejoin="round"/>
<path d="M22.6914 13.8297L26.6854 18.6225C26.7833 18.74 26.853 18.8783 26.889 19.0269C26.9251 19.1755 26.9266 19.3304 26.8934 19.4796L25.348 26.4338C25.3112 26.5996 25.2328 26.7532 25.1201 26.8803C25.0074 27.0073 24.8643 27.1036 24.7041 27.16C24.5439 27.2165 24.372 27.2312 24.2046 27.2028C24.0372 27.1744 23.8798 27.1038 23.7472 26.9977L20 24" stroke="#FBFAFA" stroke-width="2" stroke-linecap="round" stroke-linejoin="round"/>
<path d="M16 13.5C16.8284 13.5 17.5 12.8284 17.5 12C17.5 11.1716 16.8284 10.5 16 10.5C15.1716 10.5 14.5 11.1716 14.5 12C14.5 12.8284 15.1716 13.5 16 13.5Z" fill="#FBFAFA"/>
</svg>
