<svg width="247" height="36" viewBox="0 0 247 36" fill="none" xmlns="http://www.w3.org/2000/svg">
<path d="M31 19.901L23.2413 24.3718L15.5 19.901L23.2413 15.4302L31 19.901Z" fill="#FBFAFA"/>
<path d="M31 28.8423L23.2413 33.3132L15.5 28.8423L23.2413 24.3716L31 28.8423Z" fill="#FBFAFA"/>
<path d="M23.2413 33.3133V24.3717L31 19.9009V28.8425L23.2413 33.3133Z" fill="#FBFAFA"/>
<path d="M7.75867 6.47119L15.5 10.942V19.901L7.75867 15.4302V6.47119Z" fill="#FBFAFA"/>
<path d="M15.5 2.00024L23.2413 6.47104V15.4301L15.5 10.9418V2.00024Z" fill="#FBFAFA"/>
<path d="M23.2412 6.47105L15.5 10.9418L7.75867 6.47105L15.5 2.00024L23.2412 6.47105Z" fill="#FBFAFA"/>
<path d="M7.75867 33.3133V24.3717L15.5 19.9009V28.8425L7.75867 33.3133Z" fill="#FBFAFA"/>
<path d="M0 28.8426V19.901L7.7587 15.4302V24.3718L0 28.8426Z" fill="#FBFAFA"/>
<path d="M0 19.9009L7.7587 24.3717V33.3133L0 28.8425V19.9009Z" fill="#FBFAFA"/>
<path d="M47.4062 29H57.6761C62.4169 29 65.3466 26.4112 65.3466 22.821C65.3466 19.7422 63.0774 17.7287 60.2756 17.6222V17.4091C62.8004 16.9084 64.4943 15.044 64.4943 12.6364C64.4943 9.3125 61.8523 7.18182 56.8665 7.18182H47.4062V29ZM53.3295 24.2699V19.6676H56.1847C57.9851 19.6676 59.0824 20.5199 59.0824 22.054C59.0824 23.5135 58.0916 24.2699 56.0994 24.2699H53.3295ZM53.3295 16.0028V11.8267H55.8438C57.3139 11.8267 58.4006 12.5724 58.4006 13.9148C58.4006 15.2571 57.3139 16.0028 55.7585 16.0028H53.3295ZM67.1453 29H81.8896V24.2273H73.0686V7.18182H67.1453V29ZM104.271 18.0909C104.271 10.804 99.5832 6.88352 93.6599 6.88352C87.694 6.88352 83.0491 10.804 83.0491 18.0909C83.0491 25.3352 87.694 29.2983 93.6599 29.2983C99.5832 29.2983 104.271 25.3778 104.271 18.0909ZM98.177 18.0909C98.177 22.0114 96.6003 24.142 93.6599 24.142C90.7196 24.142 89.1429 22.0114 89.1429 18.0909C89.1429 14.1705 90.7196 12.0398 93.6599 12.0398C96.6003 12.0398 98.177 14.1705 98.177 18.0909ZM127.081 15.3636C126.612 9.9517 122.649 6.88352 117.152 6.88352C111.271 6.88352 106.626 10.804 106.626 18.0909C106.626 25.3459 111.143 29.2983 117.152 29.2983C123.544 29.2983 126.782 24.8665 127.081 21.1591L121.072 21.1165C120.774 22.9808 119.453 24.142 117.28 24.142C114.392 24.142 112.72 22.0966 112.72 18.0909C112.72 14.2983 114.339 12.0398 117.322 12.0398C119.602 12.0398 120.902 13.3821 121.072 15.3636H127.081ZM129.468 29H135.391V23.375L137.351 20.8182L142.252 29H149.326L141.783 16.8977L149.155 7.18182H142.252L135.69 16.0028H135.391V7.18182H129.468V29ZM169.606 15.3636C169.137 9.9517 165.174 6.88352 159.677 6.88352C153.796 6.88352 149.151 10.804 149.151 18.0909C149.151 25.3459 153.668 29.2983 159.677 29.2983C166.069 29.2983 169.307 24.8665 169.606 21.1591L163.597 21.1165C163.299 22.9808 161.978 24.142 159.805 24.142C156.917 24.142 155.245 22.0966 155.245 18.0909C155.245 14.2983 156.864 12.0398 159.847 12.0398C162.127 12.0398 163.427 13.3821 163.597 15.3636H169.606ZM171.993 29H177.916V20.4773H185.757V29H191.68V7.18182H185.757V15.7045H177.916V7.18182H171.993V29ZM199.861 29L201.118 24.8239H208.319L209.576 29H215.969L208.767 7.18182H200.67L193.469 29H199.861ZM202.46 20.392L204.633 13.1903H204.804L206.977 20.392H202.46ZM223.693 7.18182H217.77V29H223.693V7.18182ZM245.078 7.18182H239.155V18.6023H238.984L231.229 7.18182H226.2V29H232.124V17.5369H232.252L240.135 29H245.078V7.18182Z" fill="#FBFAFA"/>
</svg>
