<svg width="211" height="36" viewBox="0 0 211 36" fill="none" xmlns="http://www.w3.org/2000/svg">
<path d="M11.0001 28.3998H8.8001C7.5901 28.3998 6.6001 27.4098 6.6001 26.1998V23.9998C6.6001 22.7898 7.5901 21.7998 8.8001 21.7998H11.0001C12.2101 21.7998 13.2001 22.7898 13.2001 23.9998V26.1998C13.2001 27.4098 12.2101 28.3998 11.0001 28.3998Z" fill="#FBFAFA"/>
<path d="M13.2 32.7999V30.5999C13.2 29.3899 14.19 28.3999 15.4 28.3999H17.6C18.81 28.3999 19.8 29.3899 19.8 30.5999V32.7999C19.8 34.0099 18.81 34.9999 17.6 34.9999H15.4C14.19 34.9999 13.2 34.0099 13.2 32.7999Z" fill="#FBFAFA"/>
<path d="M6.6 19.6002V17.4002C6.6 16.1902 5.61 15.2002 4.4 15.2002H2.2C0.99 15.2002 0 16.1902 0 17.4002V19.6002C0 20.8102 0.99 21.8002 2.2 21.8002H4.4C5.61 21.8002 6.6 20.8102 6.6 19.6002Z" fill="#FBFAFA"/>
<path d="M22 28.3998H24.2C25.41 28.3998 26.4 27.4098 26.4 26.1998V23.9998C26.4 22.7898 25.41 21.7998 24.2 21.7998H22C20.79 21.7998 19.8 22.7898 19.8 23.9998V26.1998C19.8 27.4098 20.79 28.3998 22 28.3998Z" fill="#FBFAFA"/>
<path d="M26.3999 19.6002V17.4002C26.3999 16.1902 27.3899 15.2002 28.5999 15.2002H30.7999C32.0099 15.2002 32.9999 16.1902 32.9999 17.4002V19.6002C32.9999 20.8102 32.0099 21.8002 30.7999 21.8002H28.5999C27.3899 21.8002 26.3999 20.8102 26.3999 19.6002Z" fill="#FBFAFA"/>
<path d="M11.0001 8.6001H8.8001C7.5901 8.6001 6.6001 9.5901 6.6001 10.8001V13.0001C6.6001 14.2101 7.5901 15.2001 8.8001 15.2001H11.0001C12.2101 15.2001 13.2001 14.2101 13.2001 13.0001V10.8001C13.2001 9.5901 12.2101 8.6001 11.0001 8.6001Z" fill="#FBFAFA"/>
<path d="M13.2 4.2V6.4C13.2 7.61 14.19 8.6 15.4 8.6H17.6C18.81 8.6 19.8 7.61 19.8 6.4V4.2C19.8 2.99 18.81 2 17.6 2H15.4C14.19 2 13.2 2.99 13.2 4.2Z" fill="#FBFAFA"/>
<path d="M22 8.6001H24.2C25.41 8.6001 26.4 9.5901 26.4 10.8001V13.0001C26.4 14.2101 25.41 15.2001 24.2 15.2001H22C20.79 15.2001 19.8 14.2101 19.8 13.0001V10.8001C19.8 9.5901 20.79 8.6001 22 8.6001Z" fill="#FBFAFA"/>
<path d="M13.2 10.8001C13.2 9.59015 12.21 8.60015 11 8.60015C12.21 8.60015 13.2 7.61015 13.2 6.40015C13.2 7.61015 14.19 8.60015 15.4 8.60015C14.19 8.60015 13.2 9.59015 13.2 10.8001Z" fill="#FBFAFA"/>
<path d="M6.60002 17.4C6.60002 16.19 5.61002 15.2 4.40002 15.2C5.61002 15.2 6.60002 14.21 6.60002 13C6.60002 14.21 7.59002 15.2 8.80002 15.2C7.59002 15.2 6.60002 16.19 6.60002 17.4Z" fill="#FBFAFA"/>
<path d="M19.8 10.8001C19.8 9.59015 18.81 8.60015 17.6 8.60015C18.81 8.60015 19.8 7.61015 19.8 6.40015C19.8 7.61015 20.79 8.60015 22 8.60015C20.79 8.60015 19.8 9.59015 19.8 10.8001Z" fill="#FBFAFA"/>
<path d="M26.4001 17.4C26.4001 16.19 25.4101 15.2 24.2001 15.2C25.4101 15.2 26.4001 14.21 26.4001 13C26.4001 14.21 27.3901 15.2 28.6001 15.2C27.3901 15.2 26.4001 16.19 26.4001 17.4Z" fill="#FBFAFA"/>
<path d="M15.4 28.4C14.19 28.4 13.2 29.39 13.2 30.6C13.2 29.39 12.21 28.4 11 28.4C12.21 28.4 13.2 27.41 13.2 26.2C13.2 27.41 14.19 28.4 15.4 28.4Z" fill="#FBFAFA"/>
<path d="M8.80002 21.7999C7.59002 21.7999 6.60002 22.7899 6.60002 23.9999C6.60002 22.7899 5.61002 21.7999 4.40002 21.7999C5.61002 21.7999 6.60002 20.8099 6.60002 19.5999C6.60002 20.8099 7.59002 21.7999 8.80002 21.7999Z" fill="#FBFAFA"/>
<path d="M22 28.4C20.79 28.4 19.8 29.39 19.8 30.6C19.8 29.39 18.81 28.4 17.6 28.4C18.81 28.4 19.8 27.41 19.8 26.2C19.8 27.41 20.79 28.4 22 28.4Z" fill="#FBFAFA"/>
<path d="M28.6001 21.7999C27.3901 21.7999 26.4001 22.7899 26.4001 23.9999C26.4001 22.7899 25.4101 21.7999 24.2001 21.7999C25.4101 21.7999 26.4001 20.8099 26.4001 19.5999C26.4001 20.8099 27.3901 21.7999 28.6001 21.7999Z" fill="#FBFAFA"/>
<path d="M63.5753 14.3835H69.5625C69.1044 10.005 65.1307 6.88352 59.9744 6.88352C54.0938 6.88352 49.321 10.9318 49.321 18.1335C49.321 25.0369 53.6463 29.2983 60.017 29.2983C65.7273 29.2983 69.8182 25.804 69.8182 19.8381V16.8125H60.1449V21.0312H64.108C64.0547 22.9276 62.7124 24.142 60.0597 24.142C56.9915 24.142 55.4148 21.8835 55.4148 18.0483C55.4148 14.2663 57.1193 12.0398 60.1023 12.0398C61.956 12.0398 63.2131 12.892 63.5753 14.3835ZM77.2739 29L78.531 24.8239H85.7327L86.9898 29H93.3818L86.1801 7.18182H78.0835L70.8818 29H77.2739ZM79.8733 20.392L82.0466 13.1903H82.217L84.3903 20.392H79.8733ZM95.1832 7.18182V29H100.979V16.3011H101.149L106.007 28.8295H109.501L114.359 16.3864H114.53V29H120.325V7.18182H112.953L107.882 19.5398H107.626L102.555 7.18182H95.1832ZM122.832 29H133.102C137.843 29 140.773 26.4112 140.773 22.821C140.773 19.7422 138.504 17.7287 135.702 17.6222V17.4091C138.227 16.9084 139.92 15.044 139.92 12.6364C139.92 9.3125 137.278 7.18182 132.293 7.18182H122.832V29ZM128.756 24.2699V19.6676H131.611C133.411 19.6676 134.509 20.5199 134.509 22.054C134.509 23.5135 133.518 24.2699 131.526 24.2699H128.756ZM128.756 16.0028V11.8267H131.27C132.74 11.8267 133.827 12.5724 133.827 13.9148C133.827 15.2571 132.74 16.0028 131.185 16.0028H128.756ZM142.571 29H157.316V24.2273H148.495V7.18182H142.571V29ZM165.333 7.18182H159.41V29H165.333V7.18182ZM186.718 7.18182H180.795V18.6023H180.625L172.869 7.18182H167.841V29H173.764V17.5369H173.892L181.775 29H186.718V7.18182ZM203.389 14.3835H209.377C208.918 10.005 204.945 6.88352 199.788 6.88352C193.908 6.88352 189.135 10.9318 189.135 18.1335C189.135 25.0369 193.46 29.2983 199.831 29.2983C205.541 29.2983 209.632 25.804 209.632 19.8381V16.8125H199.959V21.0312H203.922C203.869 22.9276 202.526 24.142 199.874 24.142C196.806 24.142 195.229 21.8835 195.229 18.0483C195.229 14.2663 196.933 12.0398 199.916 12.0398C201.77 12.0398 203.027 12.892 203.389 14.3835Z" fill="#FBFAFA"/>
</svg>
