<svg width="1336" height="1080" viewBox="0 0 1336 1080" fill="none" xmlns="http://www.w3.org/2000/svg">
<path d="M1733.31 136.525L1548.84 1066" stroke="url(#paint0_linear)" stroke-miterlimit="10"/>
<path d="M1514.53 -122.201L1548.84 1066" stroke="url(#paint1_linear)" stroke-miterlimit="10"/>
<path d="M1205.95 -260.731L1548.84 1066" stroke="url(#paint2_linear)" stroke-miterlimit="10"/>
<path d="M867.609 -251.262L1548.84 1066" stroke="url(#paint3_linear)" stroke-miterlimit="10"/>
<path d="M566.779 -95.3586L1548.84 1066" stroke="url(#paint4_linear)" stroke-miterlimit="10"/>
<path d="M363.708 174.843L1548.84 1066" stroke="url(#paint5_linear)" stroke-miterlimit="10"/>
<path d="M297.512 507.458L1548.84 1066" stroke="url(#paint6_linear)" stroke-miterlimit="10"/>
<path d="M382.852 834.761L1548.84 1066" stroke="url(#paint7_linear)" stroke-miterlimit="10"/>
<path d="M601.634 1093.49L1548.84 1066" stroke="url(#paint8_linear)" stroke-miterlimit="10"/>
<path d="M909.664 1231.37L1548.84 1066" stroke="url(#paint9_linear)" stroke-miterlimit="10"/>
<path d="M1248.65 1221.36L1548.84 1066" stroke="url(#paint10_linear)" stroke-miterlimit="10"/>
<path d="M1205.95 -260.731L566.779 -95.3586" stroke="url(#paint11_linear)" stroke-miterlimit="10"/>
<path d="M1514.53 -122.201L566.779 -95.3586" stroke="url(#paint12_linear)" stroke-miterlimit="10"/>
<path d="M1733.31 136.525L566.779 -95.3586" stroke="url(#paint13_linear)" stroke-miterlimit="10"/>
<path d="M1818.1 463.184L566.779 -95.3586" stroke="url(#paint14_linear)" stroke-miterlimit="10"/>
<path d="M1752.55 795.252L566.779 -95.3586" stroke="url(#paint15_linear)" stroke-miterlimit="10"/>
<path d="M1548.84 1066L566.779 -95.3586" stroke="url(#paint16_linear)" stroke-miterlimit="10"/>
<path d="M1248.65 1221.36L566.779 -95.3587" stroke="url(#paint17_linear)" stroke-miterlimit="10"/>
<path d="M909.664 1231.37L566.778 -95.3583" stroke="url(#paint18_linear)" stroke-miterlimit="10"/>
<path d="M601.634 1093.49L566.779 -95.359" stroke="url(#paint19_linear)" stroke-miterlimit="10"/>
<path d="M382.852 834.761L566.779 -95.359" stroke="url(#paint20_linear)" stroke-miterlimit="10"/>
<path d="M297.512 507.458L566.778 -95.3583" stroke="url(#paint21_linear)" stroke-miterlimit="10"/>
<path d="M363.708 174.843L566.779 -95.3587" stroke="url(#paint22_linear)" stroke-miterlimit="10"/>
<defs>
<linearGradient id="paint0_linear" x1="1450.39" y1="375.765" x2="1831.76" y2="826.759" gradientUnits="userSpaceOnUse">
<stop stop-color="#3E22F2"/>
<stop offset="0.322917" stop-color="#0FAAA1"/>
<stop offset="0.6875" stop-color="#23CCF1"/>
<stop offset="1" stop-color="#17A8F5"/>
</linearGradient>
<linearGradient id="paint1_linear" x1="1231.61" y1="117.04" x2="1831.76" y2="826.759" gradientUnits="userSpaceOnUse">
<stop stop-color="#3E22F2"/>
<stop offset="0.322917" stop-color="#0FAAA1"/>
<stop offset="0.6875" stop-color="#23CCF1"/>
<stop offset="1" stop-color="#17A8F5"/>
</linearGradient>
<linearGradient id="paint2_linear" x1="978.843" y1="-68.6842" x2="1775.95" y2="873.952" gradientUnits="userSpaceOnUse">
<stop stop-color="#3E22F2"/>
<stop offset="0.322917" stop-color="#0FAAA1"/>
<stop offset="0.6875" stop-color="#23CCF1"/>
<stop offset="1" stop-color="#17A8F5"/>
</linearGradient>
<linearGradient id="paint3_linear" x1="741.472" y1="-144.599" x2="1674.98" y2="959.337" gradientUnits="userSpaceOnUse">
<stop stop-color="#3E22F2"/>
<stop offset="0.322917" stop-color="#0FAAA1"/>
<stop offset="0.6875" stop-color="#23CCF1"/>
<stop offset="1" stop-color="#17A8F5"/>
</linearGradient>
<linearGradient id="paint4_linear" x1="567.161" y1="-95.6815" x2="1549.22" y2="1065.68" gradientUnits="userSpaceOnUse">
<stop stop-color="#3E22F2"/>
<stop offset="0.322917" stop-color="#0FAAA1"/>
<stop offset="0.6875" stop-color="#23CCF1"/>
<stop offset="1" stop-color="#17A8F5"/>
</linearGradient>
<linearGradient id="paint5_linear" x1="489.522" y1="68.4527" x2="1423.03" y2="1172.39" gradientUnits="userSpaceOnUse">
<stop stop-color="#3E22F2"/>
<stop offset="0.322917" stop-color="#0FAAA1"/>
<stop offset="0.6875" stop-color="#23CCF1"/>
<stop offset="1" stop-color="#17A8F5"/>
</linearGradient>
<linearGradient id="paint6_linear" x1="524.622" y1="315.411" x2="1321.73" y2="1258.05" gradientUnits="userSpaceOnUse">
<stop stop-color="#3E22F2"/>
<stop offset="0.322917" stop-color="#0FAAA1"/>
<stop offset="0.6875" stop-color="#23CCF1"/>
<stop offset="1" stop-color="#17A8F5"/>
</linearGradient>
<linearGradient id="paint7_linear" x1="665.772" y1="595.521" x2="1265.92" y2="1305.24" gradientUnits="userSpaceOnUse">
<stop stop-color="#3E22F2"/>
<stop offset="0.322917" stop-color="#0FAAA1"/>
<stop offset="0.6875" stop-color="#23CCF1"/>
<stop offset="1" stop-color="#17A8F5"/>
</linearGradient>
<linearGradient id="paint8_linear" x1="884.553" y1="854.246" x2="1265.92" y2="1305.24" gradientUnits="userSpaceOnUse">
<stop stop-color="#3E22F2"/>
<stop offset="0.322917" stop-color="#0FAAA1"/>
<stop offset="0.6875" stop-color="#23CCF1"/>
<stop offset="1" stop-color="#17A8F5"/>
</linearGradient>
<linearGradient id="paint9_linear" x1="1136.77" y1="1039.33" x2="1321.73" y2="1258.05" gradientUnits="userSpaceOnUse">
<stop stop-color="#3E22F2"/>
<stop offset="0.322917" stop-color="#0FAAA1"/>
<stop offset="0.6875" stop-color="#23CCF1"/>
<stop offset="1" stop-color="#17A8F5"/>
</linearGradient>
<linearGradient id="paint10_linear" x1="1374.47" y1="1114.97" x2="1423.02" y2="1172.39" gradientUnits="userSpaceOnUse">
<stop stop-color="#3E22F2"/>
<stop offset="0.322917" stop-color="#0FAAA1"/>
<stop offset="0.6875" stop-color="#23CCF1"/>
<stop offset="1" stop-color="#17A8F5"/>
</linearGradient>
<linearGradient id="paint11_linear" x1="793.889" y1="-287.406" x2="978.843" y2="-68.6838" gradientUnits="userSpaceOnUse">
<stop stop-color="#3E22F2"/>
<stop offset="0.322917" stop-color="#0FAAA1"/>
<stop offset="0.6875" stop-color="#23CCF1"/>
<stop offset="1" stop-color="#17A8F5"/>
</linearGradient>
<linearGradient id="paint12_linear" x1="849.699" y1="-334.599" x2="1231.61" y2="117.04" gradientUnits="userSpaceOnUse">
<stop stop-color="#3E22F2"/>
<stop offset="0.322917" stop-color="#0FAAA1"/>
<stop offset="0.6875" stop-color="#23CCF1"/>
<stop offset="1" stop-color="#17A8F5"/>
</linearGradient>
<linearGradient id="paint13_linear" x1="849.699" y1="-334.599" x2="1450.39" y2="375.765" gradientUnits="userSpaceOnUse">
<stop stop-color="#3E22F2"/>
<stop offset="0.322917" stop-color="#0FAAA1"/>
<stop offset="0.6875" stop-color="#23CCF1"/>
<stop offset="1" stop-color="#17A8F5"/>
</linearGradient>
<linearGradient id="paint14_linear" x1="793.889" y1="-287.406" x2="1590.99" y2="655.231" gradientUnits="userSpaceOnUse">
<stop stop-color="#3E22F2"/>
<stop offset="0.322917" stop-color="#0FAAA1"/>
<stop offset="0.6875" stop-color="#23CCF1"/>
<stop offset="1" stop-color="#17A8F5"/>
</linearGradient>
<linearGradient id="paint15_linear" x1="692.916" y1="-202.021" x2="1626.42" y2="901.915" gradientUnits="userSpaceOnUse">
<stop stop-color="#3E22F2"/>
<stop offset="0.322917" stop-color="#0FAAA1"/>
<stop offset="0.6875" stop-color="#23CCF1"/>
<stop offset="1" stop-color="#17A8F5"/>
</linearGradient>
<linearGradient id="paint16_linear" x1="567.161" y1="-95.6815" x2="1549.22" y2="1065.68" gradientUnits="userSpaceOnUse">
<stop stop-color="#3E22F2"/>
<stop offset="0.322917" stop-color="#0FAAA1"/>
<stop offset="0.6875" stop-color="#23CCF1"/>
<stop offset="1" stop-color="#17A8F5"/>
</linearGradient>
<linearGradient id="paint17_linear" x1="440.965" y1="11.0311" x2="1374.47" y2="1114.97" gradientUnits="userSpaceOnUse">
<stop stop-color="#3E22F2"/>
<stop offset="0.322917" stop-color="#0FAAA1"/>
<stop offset="0.6875" stop-color="#23CCF1"/>
<stop offset="1" stop-color="#17A8F5"/>
</linearGradient>
<linearGradient id="paint18_linear" x1="339.668" y1="96.689" x2="1136.77" y2="1039.33" gradientUnits="userSpaceOnUse">
<stop stop-color="#3E22F2"/>
<stop offset="0.322917" stop-color="#0FAAA1"/>
<stop offset="0.6875" stop-color="#23CCF1"/>
<stop offset="1" stop-color="#17A8F5"/>
</linearGradient>
<linearGradient id="paint19_linear" x1="283.86" y1="143.882" x2="884.553" y2="854.246" gradientUnits="userSpaceOnUse">
<stop stop-color="#3E22F2"/>
<stop offset="0.322917" stop-color="#0FAAA1"/>
<stop offset="0.6875" stop-color="#23CCF1"/>
<stop offset="1" stop-color="#17A8F5"/>
</linearGradient>
<linearGradient id="paint20_linear" x1="283.86" y1="143.882" x2="665.772" y2="595.521" gradientUnits="userSpaceOnUse">
<stop stop-color="#3E22F2"/>
<stop offset="0.322917" stop-color="#0FAAA1"/>
<stop offset="0.6875" stop-color="#23CCF1"/>
<stop offset="1" stop-color="#17A8F5"/>
</linearGradient>
<linearGradient id="paint21_linear" x1="339.668" y1="96.689" x2="524.622" y2="315.411" gradientUnits="userSpaceOnUse">
<stop stop-color="#3E22F2"/>
<stop offset="0.322917" stop-color="#0FAAA1"/>
<stop offset="0.6875" stop-color="#23CCF1"/>
<stop offset="1" stop-color="#17A8F5"/>
</linearGradient>
<linearGradient id="paint22_linear" x1="440.965" y1="11.0311" x2="489.522" y2="68.4531" gradientUnits="userSpaceOnUse">
<stop stop-color="#3E22F2"/>
<stop offset="0.322917" stop-color="#0FAAA1"/>
<stop offset="0.6875" stop-color="#23CCF1"/>
<stop offset="1" stop-color="#17A8F5"/>
</linearGradient>
</defs>
</svg>
