<svg width="35" height="39" viewBox="0 0 35 39" fill="none" xmlns="http://www.w3.org/2000/svg">
<path d="M27.2152 24.7122V33.6848L19.4515 38.1818V29.2092L27.2152 24.7122Z" fill="#FBFAFA"/>
<path d="M11.6666 24.7122V33.6848L19.4515 38.1818V29.2092L11.6666 24.7122Z" fill="#FBFAFA"/>
<path d="M34.9999 20.2151V29.2091L27.2151 33.6848V24.7121L34.9999 20.2151Z" fill="#FBFAFA"/>
<path d="M15.5485 8.99403L23.3333 4.49707L31.1181 8.99403L23.3333 13.4698L15.5485 8.99403Z" fill="#FBFAFA"/>
<path d="M23.3333 22.4636L31.1181 17.9666V8.9939L23.3333 13.4697V22.4636Z" fill="#FBFAFA"/>
<path d="M7.78479 4.49696L15.5484 0L23.3333 4.49696L15.5484 8.99391L7.78479 4.49696Z" fill="#FBFAFA"/>
<path d="M7.78483 26.9606L0 22.4636V13.4697L7.78483 17.9667V26.9606Z" fill="#FBFAFA"/>
<path d="M15.5485 13.4697L7.78483 8.9939L0 13.4697L7.78483 17.9666L15.5485 13.4697Z" fill="#FBFAFA"/>
<path d="M7.78483 35.9333L0 31.4575V22.4636L7.78483 26.9606V35.9333Z" fill="#FBFAFA"/>
</svg>
