<svg width="16" height="16" viewBox="0 0 16 16" fill="none" xmlns="http://www.w3.org/2000/svg">
<path d="M5.49716 15.767H10.2699V10.2699H15.767V5.49716H10.2699V0H5.49716V5.49716H0V10.2699H5.49716V15.767Z" fill="#FBFAFA"/>
</svg>
