<svg width="42" height="31" viewBox="0 0 42 31" fill="none" xmlns="http://www.w3.org/2000/svg">
<path d="M31.5 6.04331L21 12.11L10.5 6.04331L21 0L31.5 6.04331Z" fill="#FBFAFA"/>
<path d="M31.5 12.11V24.2433L21 30.31V18.1767L31.5 12.11Z" fill="#FBFAFA"/>
<path d="M10.5 12.11V24.2433L21 30.31V18.1767L10.5 12.11Z" fill="#FBFAFA"/>
<path d="M0 6.04333V18.1767L10.5 24.2433V12.11L0 6.04333Z" fill="#FBFAFA"/>
<path d="M42 6.04333V18.1767L31.5 24.2433V12.11L42 6.04333Z" fill="#FBFAFA"/>
</svg>
